A/B Testing Case Study · Julian Carrasquillo
…
HA: The larger buttons in variant C will increase product views.

With this background information set, we can go ahead with our workflow.

Reading in data, extracting KPIs

Getting a look at the table, we see that most of the columns are numeric. When importing, I factored the version variable.

ab_data <- read_excel("AB_test.xlsx", sheet = "key_metrics") %>%
  mutate(Version = factor(Version))

ab_data

## # A tibble: 48 x 9
##      Day Version Homepage_Visits Bounces Category_Link_C~ Product_View_Vi~
##    <dbl> <fct>             <dbl>   <dbl>            <dbl>            <dbl>
##  1     1 A                  1260     214                0              652
##  2     2 A                  1342     194                0              762
##  3     3 A                  1351     204                0              739
##  4     4 A                  1323     212                0              668
##  5     5 A                  1688     265                0              896
##  6     6 A                  1950     277                0             1100
##  7     7 A                  1257     222                0              649
##  8     8 A                  1239     195                0              645
##  9     9 A                   891     146                0              478
## 10    10 A                   869     134                0              467
## # ... with 38 more rows, and 3 more variables: Cart_Visits <dbl>,
## #   Orders <dbl>, Revenue <dbl>
…
